{
	"states" : [ {
	  "@id" : 1,
	  "name" : "State1",
	  "pos" : [ 89.0, 95.0 ]
	}, {
	  "@id" : 2,
	  "name" : "State2",
	  "pos" : [ 241.0, 244.0 ]
	} ],
	"entryPoint" : 1,
	"actions" : [ {
	  "name" : "a",
	  "from" : 1,
	  "to" : 2,
	  "handles" : [ 17.600319, 18.452065, -18.909164, -17.108292 ]
	} ]
}