{
	"version" : 1,
      "saveTarget" : "MEMENTO",
      "id" : 851290758,
      "width" : 575,
      "height" : 374,
      "nodes" : [ {
      	"@id": 0,
        "id" : 0,
        "node" : "gui.particles.prog.ParticleOut",
        "name" : "ParticleOut",
        "gui" : true,
        "xy" : [ 76, 215 ],
        "outputs" : [ {
          "name" : "Number1",
          "type" : "Number",
          "value" : 0.28
        }, {
          "name" : "Color1",
          "type" : "COLOR",
          "value" : "0xFFC81414"
        } ],
        "y" : 215,
        "x" : 76
      }, {
      	"@id": 1,
        "id" : 1,
        "node" : "module.modules.anim.Shape",
        "name" : "Shape",
        "gui" : true,
        "xy" : [ 394, 229 ],
        "extra" : [ "ELLIPSE", "DEFAULT" ],
        "inputs" : [ {
          "name" : "Transform",
          "type" : "TRANSFORM",
          "value" : [ 0.2800000011920929, 0.0, 0.0, 0.0, 0.2800000011920929, 0.0 ]
        }, {
          "name" : "Color",
          "type" : "COLOR",
          "value" : "0xFFC81414"
        }, {
          "name" : "Blend",
          "type" : "ENUM",
          "value" : 0.0
        } ],
        "y" : 229,
        "x" : 394
      }, {
      	"@id": 2,
        "id" : 2,
        "node" : "module.modules.math.Scale",
        "name" : "Scale",
        "gui" : true,
        "xy" : [ 237, 148 ],
        "inputs" : [ {
          "name" : "Scale",
          "type" : "Number",
          "value" : 0.28
        }],
        "outputs" : [ {
          "name" : "Transform",
          "type" : "TRANSFORM"
        } ],
        "y" : 148,
        "x" : 237
      }, {
      	"@id": 3,
        "id" : 3,
        "node" : "gui.particles.prog.ParticleInfo",
        "name" : "Info",
        "gui" : true,
        "xy" : [ 83, 84 ],
        "outputs" : [ {
          "name" : "Lifetime",
          "type" : "Number"
        }, {
          "name" : "Speed",
          "type" : "Number"
        }, {
          "name" : "Dir",
          "type" : "Number"
        }, {
          "name" : "ID",
          "type" : "Number"
        } ],
        "y" : 84,
        "x" : 83
      } ],
      "links" : [ {
        "nodeOut" : 2,
        "output" : "Transform",
        "nodeIn" : 1,
        "input" : "Transform"
      }, {
        "nodeOut" : 0,
        "output" : "Color1",
        "nodeIn" : 1,
        "input" : "Color"
      }, {
        "nodeOut" : 0,
        "output" : "Number1",
        "nodeIn" : 2,
        "input" : "Scale"
      }],
      "particleParams" : [ {
        "name" : "Number1",
        "value" : 0.28,
        "type" : "Number"
      }, {
        "name" : "Color1",
        "value" : -3664876,
        "type" : "COLOR"
      } ]
    },
    "inputs" : [ {
      "name" : "Trigger",
      "type" : "Number",
      "value" : 0.0,
      "marker" : 0.1,
      "trigger" : "right"
    }, {
      "name" : "Angle",
      "type" : "Number",
      "value" : 0.5
    }, {
      "name" : "Speed",
      "type" : "Number",
      "value" : 0.5
    }, {
      "name" : "Lifetime",
      "type" : "Number",
      "value" : 50.0
    }, {
      "name" : "Number1",
      "type" : "Number",
      "value" : 0.28
    }, {
      "name" : "Color1",
      "type" : "COLOR",
      "value" : "0xFFC81414"
    } ],
    "y" : 340,
    "x" : 378
  } ]
}